{
	"name": "PSEVEN_options",
	"properties": {
		"xtol_rel": {
			"type": "number",
			"minimum": 0.0
		},
		"normalize_design_space": {
			"type": "boolean"
		},
		"xtol_abs": {
			"type": "number",
			"minimum": 0.0
		},
		"ftol_rel": {
			"type": "number",
			"minimum": 0.0
		},
		"ftol_abs": {
			"type": "number",
			"minimum": 0.0
		},
		"stop_crit_n_x": {
			"type": "integer",
			"minimum": 2
		},
		"eq_tolerance": {
			"type": "number",
			"minimum": 0.0
		},
		"ineq_tolerance": {
			"type": "number",
			"minimum": 0.0
		},
		"max_iter": {
			"type": "integer",
			"minimum": 1
		},
		"evaluation_cost_type": {
			"anyOf": [
				{
					"type": "null"
				},
				{
					"type": "string",
					"enum": ["Cheap", "Expensive"]
				},
				{
					"type": "object",
					"additionalProperties": {
						"type": "string",
						"enum": ["Cheap", "Expensive"]
					}
				}
			]
		},
		"expensive_evaluations": {
			"type": ["null", "object"],
			"additionalProperties": {
				"type": "integer"
			}
		},
		"sample_x": {
			"type": ["null", "array"]
		},
		"sample_f": {
			"type": ["null", "array"]
		},
		"sample_c": {
			"type": ["null", "array"]
		},
		"constraints_smoothness": {
			"type": "string",
			"enum": ["Smooth", "Noisy", "Auto"]
		},
		"global_phase_intensity": {
			"type": ["string", "number"],
			"enum": ["Auto"],
			"minimum": 0.0,
			"maximum": 1.0
		},
		"max_expensive_func_iter": {
			"type": "integer",
			"minimum": 0,
			"maximum": 2147483647
		},
		"max_func_iter": {
			"type": "integer",
			"minimum": 0,
			"maximum": 4294967294
		},
		"objectives_smoothness": {
			"type": "string",
			"enum": ["Smooth", "Noisy", "Auto"]
		},
		"deterministic": {
			"type": ["string", "boolean"],
			"enum": ["Auto"]
		},
		"log_level": {
			"type": "string",
			"enum": ["Debug", "Info", "Warn", "Error", "Fatal"]
		},
		"verbose_log" : {
			"type": "boolean"
		},
		"max_threads": {
			"type": "integer",
			"minimum": 0,
			"maximum": 512
		},
		"seed": {
			"type": "integer",
			"minimum": 1,
			"maximum": 2147483646
		},
		"time_limit": {
			"type": "integer",
			"minimum": 0,
			"maximum": 4294967294
		},
		"max_batch_size": {
			"type": "integer",
			"minimum": 0,
			"maximum": 65536
		},
		"detect_nan_clusters": {
			"type": "boolean"
		},
		"diff_scheme": {
			"type": "string",
			"enum": ["FirstOrder", "SecondOrder", "Adaptive", "Auto"]
		},
		"diff_type": {
			"type": "string",
			"enum": ["Numerical", "Framed", "Auto"]
		},
		"diff_step" : {
			"type": "number",
			"minimum": 1.1920929e-07,
			"maximum": 1.0
		},
		"ensure_feasibility": {
			"type": "boolean"
		},
		"local_search": {
			"type": "string",
			"enum": ["Disabled", "Forced"]
		},
		"restore_analytic_func": {
			"type": ["string", "boolean"],
			"enum": ["Auto"]
		},
		"responses_scalability": {
			"type": "integer",
			"minimum": 1,
			"maximum": 512
		},
		"globalization_method": {
			"type": ["null", "string"],
			"enum": [null, "RL", "PM", "MS"]
		},
		"surrogate_based": {
			"type": ["null", "boolean"]
		},
		"use_gradient": {
			"type": "boolean"
		},
		"log_path": {
			"type": ["null", "string"]
		}
	},
	"$schema": "http://json-schema.org/draft-04/schema",
	"additionalProperties": false,
	"type": "object"
}
