{
    "name": "SNOPT_options",
    "required":["max_iter"],
    "properties": {
		"xtol_rel": {
            "type": "number",
            "minimum": 0.0
        },
        "xtol_abs": {
            "type": "number",
            "minimum": 0.0
        },
        "ftol_rel": {
            "type": "number",
            "minimum": 0.0
        },
        "ftol_abs": {
            "type": "number",
            "minimum": 0.0
        },
		"max_time":{
            "type": "number",
             "minimum": 0.0
        },
        "max_iter": {
            "type": "integer",
            "minimum": 0
        },
        "normalize_design_space": {
			"type": "boolean"
		},
        "Start_type": {
            "type": "string"
        },
        "Specs_unit": {
            "type": "integer",
            "minimum": 0
        },
        "Specs_file": {
            "type": "string"
        },
        "Print_unit": {
            "type": "integer",
            "minimum": 0
        },
        "Print_file": {
            "type": "string"
        },
        "Print_frequency": {
            "type": "integer",
            "minimum": 0
        },
        "Print_level": {
            "type": "integer",
            "minimum": 0
        },
        "Summary_unit": {
            "type": "integer",
            "minimum": 0
        },
        "Summary_file": {
            "type": "string"
        },
        "Summary_frequency": {
            "type": "integer",
            "minimum": 0
        },
        "Solution_file": {
            "type": "integer",
            "minimum": 0
        },
        "Solution_print": {
            "type": "boolean"
        },
        "Major_print_level": {
            "type": "integer",
            "minimum": 0
        },
        "Minor_print_level": {
            "type": "integer",
            "minimum": 0
        },
        "Sticky_parameters": {
            "type": "integer",
            "minimum": 0
        },
        "Suppress": {
            "type": "integer",
            "minimum": 0
        },
        "System_information": {
            "type": "integer",
            "minimum": 0
        },
        "Verify_level": {
            "type": "integer",
            "minimum": 0
        },
        "Max_memory_attempts": {
            "type": "integer",
            "minimum": 1
        },
        "Total_character_workspace": {
            "type": "integer",
            "minimum": 1
        },
        "Total_integer_workspace": {
            "type": "integer",
            "minimum": 1
        },
        "Total_real_workspace": {
            "type": "integer",
            "minimum": 1
        },
        "Proximal_point": {
            "type": "integer",
            "minimum": 1
        },
        "Major_feasibility": {
            "type": "number"
        },
        "Major_optimality": {
            "type": "number"
        },
        "Minor_feasibility": {
            "type": "number"
        },
        "Minor_optimality": {
            "type": "number"
        },
        "Minor_phase1": {
            "type": "number"
        },
        "Feasibility_tolerance": {
            "type": "number"
        },
        "Optimality_tolerance": {
            "type": "number"
        },
        "Major_iterations": {
            "type": "integer",
            "minimum": 1
        },
        "Minor_iterations": {
            "type": "integer",
            "minimum": 1
        },
        "CG_tolerance": {
            "type": "number"
        },
        "CG_preconditioning": {
            "type": "integer"
        },
        "CG_iterations": {
            "type": "integer",
            "minimum": 1
        },
        "Crash_option": {
            "type": "integer",
            "minimum": 1
        },
        "Crash_tolerance": {
            "type": "number"
        },
        "Debug_level": {
            "type": "integer",
            "minimum": 1
        },
        "Derivative_level": {
            "type": "integer"
        },
        "Derivative_linesearch": {
            "type": "integer"
        },
        "Derivative_option": {
            "type": "integer"
        },
        "Elastic_objective": {
            "type": "integer"
        },
        "Elastic_mode": {
            "type": "integer"
        },
        "Elastic_weight": {
            "type": "number"
        },
        "Elastic_weightmax": {
            "type": "number"
        },
        "Hessian_frequency": {
            "type": "integer",
            "minimum": 1
        },
        "Hessian_flush": {
            "type": "integer",
            "minimum": 1
        },
        "Hessian_type": {
            "type": "integer"
        },
        "Hessian_updates": {
            "type": "integer"
        },
        "Infinite_bound": {
            "type": "number"
        },
        "Major_step_limit": {
            "type": "number"
        },
        "Unbounded_objective": {
            "type": "number"
        },
        "Unbounded_step": {
            "type": "number"
        },
        "Linesearch_tolerance": {
            "type": "number"
        },
        "Linesearch_debug": {
            "type": "integer"
        },
        "LU_swap": {
            "type": "number"
        },
        "LU_factor_tolerance": {
            "type": "number"
        },
        "lu_update_tolerance": {
            "type": "number"
        },
        "LU_density": {
            "type": "number"
        },
        "LU_singularity": {
            "type": "number"
        },
        "New_superbasics": {
            "type": "integer"
        },
        "Partial_pricing": {
            "type": "integer"
        },
        "Penalty_parameter": {
            "type": "integer"
        },
        "Reduced_Hessian_limit": {
            "type": "integer"
        },
        "Superbasics_limit": {
            "type": "integer"
        },
        "Scale_option": {
            "type": "integer"
        },
        "Scale_tolerance": {
            "type": "number"
        },
        "Scale_print": {
            "type": "integer"
        },
        "eq_tolerance": {
            "type": "number",
            "minimum": 0.0
        },
        "ineq_tolerance": {
            "type": "number",
            "minimum": 0.0
        },
        "Verbose": {
            "type": "boolean"
        }
    },
    "$schema": "http://json-schema.org/draft-04/schema",
    "additionalProperties": false,
    "type": "object"
}
